{"path":"api-reference/store-management/sites/site-routes/putsitessiteidroutes","templateID":0,"sharedPropsHashes":{"nav":"Z2k7O5R","sidebarTree":"jyzzw","namespace":"Zd6xn0"},"localProps":{"version":"1.3","crumbs":[{"content":"API Reference","to":"/api-reference"},{"content":"Management APIs","to":"/api-reference/store-management"},{"content":"Sites","to":"/api-reference/store-management/sites"},{"content":"Site Routes","to":"/api-reference/store-management/sites/site-routes"},{"content":"Update Site's Routes","to":"/api-reference/store-management/sites/site-routes/putsitessiteidroutes"}],"page":{"meta":{"title":"Update Site's Routes - Site Routes - Sites - Management APIs - API Reference","url":"/api-reference/store-management/sites/site-routes/putsitessiteidroutes","description":"Upsert routes for site with ID {site_id}.\n\nUsage notes\n\nAuthorization\n\nRequest Parameters\n\nRequest Body\n\nResponses\n\nSend a Test Request\n\nUsage Notes\n\nid..."},"title":"Update Site's Routes","parsedPath":["pages","/api-reference","data","children",2,"data","children",25,"data","children",1,"data","children",2],"rootPagePath":"/api-reference","path":"/api-reference/store-management/sites/site-routes/putsitessiteidroutes","isSubpage":true,"route":{"path":"/putsitessiteidroutes"},"data":{"blocks":[{"type":"text","data":"Upsert routes for site with ID `{site_id}`.\n\n- [Usage notes](#usage-notes)\n- [Authorization](#authorization)\n- [Request Parameters](#request-parameters)\n- [Request Body](#request-body)\n- [Responses](#responses)\n- [Send a Test Request](#send-a-test-request)\n\n## Usage Notes\n* `id` is required when updating an existing route.","header":{"title":"/sites/{site_id}/routes","subtitle":"Update Site's Routes","token":"put"}},{"type":"text","data":"## Authorization","config":{"classNames":["ApiOperation--securityTitle mt-10 -mb-10"]}},{"type":"accordion","data":{"children":[{"title":"apiKey - X-Auth-Token","blocks":[{"type":"text","data":"```http\nGET https://api.bigcommerce.com/stores/{{STORE_HASH}}/v3/sites\nContent-Type: application/json\nX-Auth-Token: {{ACCESS_TOKEN}}\n```\n\n|Header|Description|\n|-|-|\n|`X-Auth-Token`|An [OAuth](https://developer.bigcommerce.com/api-docs/getting-started/authentication/rest-api-authentication) `access_token`|\n\n### [OAuth Scopes](https://developer.bigcommerce.com/api-docs/getting-started/authentication/rest-api-authentication#oauth-scopes)\n\n|  **UI Name** | **Permission** | **Parameter** |\n| --- | --- | --- |\n|  Channel Listings | modify | `store_channel_listings` |\n|  Channel Listings | read-only | `store_channel_listings_read_only` |\n|  Channel Settings | modify | `store_channel_settings` |\n|  Channel Settings | read-only | `store_channel_settings_read_only` |\n|  Sites & Routes | modify | `store_sites` |\n|  Sites & Routes | read-only | `store_sites_read_only` |\n* **Name**: X-Auth-Token\n* **Location**: header"}]}]},"config":{"classNames":["ApiOperation--security"]}},{"type":"text","data":"## Request Parameters","config":{"classNames":["ApiOperation--requestTitle mt-10 -mb-10"]}},{"type":"accordion","data":{"children":[{"title":"1 Path Parameter","blocks":[{"type":"jsonSchema","data":{"type":"object","properties":{"site_id":{"type":"integer","required":true}},"required":["site_id"]},"config":{"hideRoot":true}}]}]},"config":{"classNames":["ApiOperation--request"]}},{"type":"text","data":"## Request Body","config":{"classNames":["ApiOperation--requestBodyTitle mt-10","-mb-10"]}},{"type":"accordion","data":{"children":[{"title":"1 Example","blocks":[{"type":"tabs","data":{"children":[{"title":"application/json","blocks":[{"type":"code","data":"[\n  {\n    \"id\": 1,\n    \"type\": \"product\",\n    \"matching\": \"*\",\n    \"route\": \"/products/{id}\"\n  },\n  {\n    \"id\": 2,\n    \"type\": \"product\",\n    \"matching\": \"10\",\n    \"route\": \"/products?id={id}\"\n  }\n]"}]}]}}]},{"title":"Schema","config":{"defaultOpen":true},"blocks":[{"type":"jsonSchema","data":{"type":"array","items":{"title":"siteRoute_Full","description":"Route object used in responses.","allOf":[{"type":"object","properties":{"id":{"type":"integer","description":"Unique ID for this route. Required when updating an existing route."}}},{"type":"object","title":"siteRoute_Base","properties":{"type":{"type":"string","description":"The type of resource being routed to; [supported types](https://developer.bigcommerce.com/api-reference/cart-checkout/sites-routes-api#route-types).","enum":["product","brand","category","page","blog","home","cart","checkout","search","account","login","returns","static"]},"matching":{"type":"string","description":"Depending on the resource type, this can be an ID (matching a specific item), or a \"*\" wildcard (matching all items of that type).\n\nFor example, a route with a type: \"product\" and matching: \"5\" will be used for the product with the ID of 5.","example":"5"},"route":{"type":"string","description":"The route template that will be used to generate the URL for the requested resource.\n\nSupports several tokens:\n- `{id}` The **ID** of the requested item\n- `{slug}` The **slug** for the requested item (if available). Note: the `slug` value may contain `/` slash\n- `{language}` The **language** string that the client is using","example":"/my-amazing-product"}}}]}},"config":{"hideRoot":false}}]}]},"config":{"classNames":["ApiOperation--requestBody"]}},{"type":"text","data":"## Responses","config":{"classNames":["ApiOperation--responsesTitle mt-10 -mb-14"]}},{"type":"tabs","data":{"children":[{"title":"200","blocks":[{"type":"accordion","data":{"children":[{"title":"1 Example","blocks":[{"type":"tabs","data":{"children":[{"title":"application/json","blocks":[{"type":"code","data":"{\n  \"data\": [\n    {\n      \"id\": 123,\n      \"type\": \"brand\",\n      \"matching\": \"5\",\n      \"route\": \"/my-amazing-product\"\n    },\n    {\n      \"id\": 345,\n      \"type\": \"blog\",\n      \"matching\": \"5\",\n      \"route\": \"/my-amazing-product\"\n    },\n    {\n      \"id\": 234,\n      \"type\": \"returns\",\n      \"matching\": \"5\",\n      \"route\": \"/my-amazing-product\"\n    }\n  ],\n  \"meta\": {\n    \"pagination\": {\n      \"total\": 80,\n      \"count\": 50,\n      \"per_page\": 50,\n      \"current_page\": 50,\n      \"total_pages\": 2,\n      \"links\": {\n        \"current\": \"?page=1&limit=50\",\n        \"next\": \"?page=2&limit=50\"\n      }\n    }\n  }\n}"}]}]}}]},{"title":"Schema","config":{"defaultOpen":true},"blocks":[{"type":"jsonSchema","data":{"type":"object","properties":{"data":{"type":"array","items":{"title":"siteRoute_Full","description":"Route object used in responses.","allOf":[{"type":"object","properties":{"id":{"type":"integer","description":"Unique ID for this route. Required when updating an existing route."}}},{"type":"object","title":"siteRoute_Base","properties":{"type":{"type":"string","description":"The type of resource being routed to; [supported types](https://developer.bigcommerce.com/api-reference/cart-checkout/sites-routes-api#route-types).","enum":["product","brand","category","page","blog","home","cart","checkout","search","account","login","returns","static"]},"matching":{"type":"string","description":"Depending on the resource type, this can be an ID (matching a specific item), or a \"*\" wildcard (matching all items of that type).\n\nFor example, a route with a type: \"product\" and matching: \"5\" will be used for the product with the ID of 5.","example":"5"},"route":{"type":"string","description":"The route template that will be used to generate the URL for the requested resource.\n\nSupports several tokens:\n- `{id}` The **ID** of the requested item\n- `{slug}` The **slug** for the requested item (if available). Note: the `slug` value may contain `/` slash\n- `{language}` The **language** string that the client is using","example":"/my-amazing-product"}}}]}},"meta":{"title":"metaCollection","description":"Meta data relating to pagination","type":"object","properties":{"pagination":{"type":"object","properties":{"total":{"type":"integer","description":"Total number of items returned.","example":3},"count":{"type":"integer","description":"Number of items returned on per page.","example":1},"per_page":{"type":"integer","description":"Number of items to be displayed per page.","example":1},"current_page":{"type":"integer","description":"Current page number.","example":2},"total_page":{"type":"integer","description":"Total number of pages.","example":3},"links":{"type":"object","properties":{"previous":{"type":"string","description":"Query string appended to the resource to return to the previous page.","example":"?limit=1&page=1"},"next":{"type":"string","description":"Query string appended to the resource to proceed to the next page.","example":"?limit=1&page=3"},"current":{"type":"string","description":"Query string appended to the resource to show the current page.","example":"?limit=1&page=2"}}}}}}}}}}]}]}}]},{"title":"422","blocks":[{"type":"accordion","data":{"children":[{"title":"1 Example","blocks":[{"type":"tabs","data":{"children":[{"title":"application/json","blocks":[{"type":"code","data":"{\n  \"meta\": {\n    \"saved_records\": 0\n  },\n  \"title\": \"Bulk operation has failed\",\n  \"type\": \"https://developer.bigcommerce.com/api-docs/getting-started/api-status-codes\",\n  \"errors\": {\n    \"0.matching.type\": \"Route already exists for site 1 matching 5 for type product\",\n    \"1.matching.type\": \"Route already exists for site 1 matching * for type home\"\n  },\n  \"status\": 422\n}"}]}]}}]},{"title":"Schema","config":{"defaultOpen":true},"blocks":[{"type":"jsonSchema","data":{"type":"object","properties":{"status":{"type":"integer","description":"The HTTP status code."},"title":{"type":"string"},"errors":{"type":"object","description":"The keys and values in an errors object will vary depending on the error received.","title":"_errors"},"meta":{"type":"object","description":"Empty meta object; may be used later.","title":"_metaEmpty"},"type":{"type":"string"}}}}]}]}}]}]},"config":{"classNames":["ApiOperation--responses"]}},{"type":"text","data":"## Send a Test Request","config":{"classNames":["ApiOperation--tryItOutTitle mt-10 -mb-10"]}},{"type":"http","data":{"method":"put","url":"https://api.bigcommerce.com/stores/{$$.env.store_hash}/v3/sites/{site_id}/routes","headers":{"Content-Type":"application/json","X-Auth-Token":"{$$.env.X-Auth-Token}"},"stepPathParams":{"site_id":""},"body":"[\n  {\n    \"id\": 1,\n    \"type\": \"product\",\n    \"matching\": \"*\",\n    \"route\": \"/products/{id}\"\n  },\n  {\n    \"id\": 2,\n    \"type\": \"product\",\n    \"matching\": \"10\",\n    \"route\": \"/products?id={id}\"\n  }\n]"},"config":{"canvas":false,"paddedInner":false,"classNames":["ApiOperation--tryItOut"]}}],"children":[]}}}}
