{"path":"api-reference/store-management/redirects/redirects/upsertredirects","templateID":0,"sharedPropsHashes":{"nav":"Z2k7O5R","sidebarTree":"jyzzw","namespace":"Zd6xn0"},"localProps":{"version":"1.3","crumbs":[{"content":"API Reference","to":"/api-reference"},{"content":"Management APIs","to":"/api-reference/store-management"},{"content":"Redirects v3","to":"/api-reference/store-management/redirects"},{"content":"Redirects","to":"/api-reference/store-management/redirects/redirects"},{"content":"Upsert Redirects","to":"/api-reference/store-management/redirects/redirects/upsertredirects"}],"page":{"meta":{"title":"Upsert Redirects - Redirects - Redirects v3 - Management APIs - API Reference","url":"/api-reference/store-management/redirects/redirects/upsertredirects","description":"Upserts new redirect data across all storefronts.\n\nAuthorization\n\nOAuth Scopes\n\n\n\nHeaders\n\n\n\nExample\n\n\n\nFor more information on Authenticating BigCommer..."},"title":"Upsert Redirects","parsedPath":["pages","/api-reference","data","children",2,"data","children",20,"data","children",0,"data","children",1],"rootPagePath":"/api-reference","path":"/api-reference/store-management/redirects/redirects/upsertredirects","isSubpage":true,"route":{"path":"/upsertredirects"},"data":{"blocks":[{"type":"text","data":"Upserts new redirect data across all storefronts.","header":{"title":"/storefront/redirects","subtitle":"Upsert Redirects","token":"put"}},{"type":"text","data":"## Authorization","config":{"classNames":["ApiOperation--securityTitle mt-10 -mb-10"]}},{"type":"accordion","data":{"children":[{"title":"apiKey - X-Auth-Token","blocks":[{"type":"text","data":"### OAuth Scopes\n|  **UI Name** | **Permission** | **Parameter** |\n| --- | --- | --- |\n|  Carts | modify | `store_cart` |\n|  Carts | read-only | `store_cart_read_only` |\n\n### Headers\n\n|Header|Parameter|Description|\n|-|-|-|\n|`X-Auth-Token`|`access_token `|Obtained by creating an API account or installing an app in a BigCommerce control panel.|\n\n### Example\n\n```http\nGET /stores/{$$.env.store_hash}/v3/catalog/summary\nhost: api.bigcommerce.com\nContent-Type: application/json\nX-Auth-Token: {access_token}\n```\n\n* For more information on Authenticating BigCommerce APIs, see: [Authentication](https://developer.bigcommerce.com/api-docs/getting-started/authentication).\n* **Name**: X-Auth-Token\n* **Location**: header"}]}]},"config":{"classNames":["ApiOperation--security"]}},{"type":"text","data":"## Request Body","config":{"classNames":["ApiOperation--requestBodyTitle mt-10","-mb-10"]}},{"type":"accordion","data":{"children":[{"title":"1 Example","blocks":[{"type":"tabs","data":{"children":[{"title":"example-1","blocks":[{"type":"code","data":"[\n  {\n    \"from_path\": \"/old-url\",\n    \"site_id\": 0,\n    \"to\": {\n      \"type\": \"product\",\n      \"entity_id\": 0,\n      \"url\": \"/new-url\"\n    }\n  }\n]"}]}]}}]},{"title":"Schema","config":{"defaultOpen":true},"blocks":[{"type":"jsonSchema","data":{"type":"array","items":{"type":"object","description":"Data necessary to create or update a redirect. If there's a conflict on the from_path and site_id, the redirect will be overwritten with new data.","properties":{"from_path":{"type":"string","example":"/old-url"},"site_id":{"type":"integer"},"to":{"title":"RedirectTo","type":"object","properties":{"type":{"type":"string","enum":["product","brand","category","page","post","url"]},"entity_id":{"type":"integer"},"url":{"type":"string","example":"/new-url","maxLength":2048}}}},"required":["from_path","site_id"]}},"config":{"hideRoot":false}}]}]},"config":{"classNames":["ApiOperation--requestBody"]}},{"type":"text","data":"## Responses","config":{"classNames":["ApiOperation--responsesTitle mt-10 -mb-14"]}},{"type":"tabs","data":{"children":[{"title":"201","blocks":[{"type":"text","data":"Created"},{"type":"accordion","data":{"children":[{"title":"1 Example","blocks":[{"type":"tabs","data":{"children":[{"title":"example-1","blocks":[{"type":"code","data":"{\n  \"data\": [\n    {\n      \"from_path\": \"/old-url\",\n      \"site_id\": 0,\n      \"to\": {\n        \"type\": \"product\",\n        \"entity_id\": 0,\n        \"url\": \"/new-url\"\n      },\n      \"id\": 0,\n      \"to_url\": \"https://store-domain.com/new-url\"\n    }\n  ],\n  \"meta\": {\n    \"pagination\": {\n      \"total\": 246,\n      \"count\": 5,\n      \"per_page\": 5,\n      \"current_page\": 1,\n      \"total_pages\": 50,\n      \"links\": {\n        \"next\": \"?limit=5&page=2\",\n        \"current\": \"?limit=5&page=1\"\n      }\n    }\n  }\n}"}]}]}}]},{"title":"Schema","config":{"defaultOpen":true},"blocks":[{"type":"jsonSchema","data":{"type":"object","properties":{"data":{"type":"array","items":{"type":"object","description":"Full detail of a Redirect, optionally including the full destination URL.","properties":{"from_path":{"type":"string","example":"/old-url"},"site_id":{"type":"integer"},"to":{"title":"RedirectTo","type":"object","properties":{"type":{"type":"string","enum":["product","brand","category","page","post","url"]},"entity_id":{"type":"integer"},"url":{"type":"string","example":"/new-url","maxLength":2048}}},"id":{"type":"integer"},"to_url":{"type":"string","format":"uri","description":"Full destination URL for the redirect. Must be explicitly included via URL parameter.","example":"https://store-domain.com/new-url"}},"required":["from_path","site_id"]}},"meta":{"type":"object","properties":{"pagination":{"type":"object","properties":{"total":{"type":"integer","example":246,"minimum":0},"count":{"type":"integer","example":5,"minimum":0},"per_page":{"type":"integer","example":5,"minimum":0},"current_page":{"type":"integer","example":1,"minimum":1},"total_pages":{"type":"integer","example":50,"minimum":0},"links":{"type":"object","properties":{"next":{"type":"string","example":"?limit=5&page=2"},"current":{"type":"string","example":"?limit=5&page=1"}}}}}}}}}}]}]}}]}]},"config":{"classNames":["ApiOperation--responses"]}},{"type":"text","data":"## Send a Test Request","config":{"classNames":["ApiOperation--tryItOutTitle mt-10 -mb-10"]}},{"type":"http","data":{"method":"put","url":"https://api.bigcommerce.com/stores/{$$.env.store_hash}/v3/storefront/redirects","headers":{"Content-Type":"application/json","X-Auth-Token":"{$$.env.X-Auth-Token}"},"body":"[\n  {\n    \"from_path\": \"/old-url\",\n    \"site_id\": 0,\n    \"to\": {\n      \"type\": \"product\",\n      \"entity_id\": 0,\n      \"url\": \"/new-url\"\n    }\n  }\n]"},"config":{"canvas":false,"paddedInner":false,"classNames":["ApiOperation--tryItOut"]}}],"children":[]}}}}
