{"path":"api-reference/store-management/custom-template-associations/custom-template-associations/getcustomtemplateassociations","templateID":0,"sharedPropsHashes":{"nav":"Z2k7O5R","sidebarTree":"jyzzw","namespace":"Zd6xn0"},"localProps":{"version":"1.3","crumbs":[{"content":"API Reference","to":"/api-reference"},{"content":"Management APIs","to":"/api-reference/store-management"},{"content":"Custom Template Associations","to":"/api-reference/store-management/custom-template-associations"},{"content":"Custom Template Associations","to":"/api-reference/store-management/custom-template-associations/custom-template-associations"},{"content":"Get Custom Template Associations","to":"/api-reference/store-management/custom-template-associations/custom-template-associations/getcustomtemplateassociations"}],"page":{"meta":{"title":"Get Custom Template Associations - Custom Template Associations - Custom Template Associations - Management APIs - API Reference","url":"/api-reference/store-management/custom-template-associations/custom-template-associations/getcustomtemplateassociations","description":"Get a collection of the store's custom template associations across all storefronts\n\nAuthorization\n\nName: X-Auth-Token\n\nLocation: header\n\nRequest Parame..."},"title":"Get Custom Template Associations","parsedPath":["pages","/api-reference","data","children",2,"data","children",9,"data","children",0,"data","children",0],"rootPagePath":"/api-reference","path":"/api-reference/store-management/custom-template-associations/custom-template-associations/getcustomtemplateassociations","isSubpage":true,"route":{"path":"/getcustomtemplateassociations"},"data":{"blocks":[{"type":"text","data":"Get a collection of the store's custom template associations across all storefronts","header":{"title":"/storefront/custom-template-associations","subtitle":"Get Custom Template Associations","token":"get"}},{"type":"text","data":"## Authorization","config":{"classNames":["ApiOperation--securityTitle mt-10 -mb-10"]}},{"type":"accordion","data":{"children":[{"title":"apiKey - X-Auth-Token","blocks":[{"type":"text","data":"* **Name**: X-Auth-Token\n* **Location**: header"}]}]},"config":{"classNames":["ApiOperation--security"]}},{"type":"text","data":"## Request Parameters","config":{"classNames":["ApiOperation--requestTitle mt-10 -mb-10"]}},{"type":"accordion","data":{"children":[{"title":"6 Query Parameters","blocks":[{"type":"jsonSchema","data":{"type":"object","properties":{"channel_id":{"type":"integer","description":"Channel ID to return only custom template associations for a given Channel"},"entity_id:in":{"type":"string","description":"Filter by a list of entity IDs. Must be used together with \"type\" filter."},"limit":{"type":"integer","description":"Number of results to return per page"},"page":{"type":"integer","description":"Which page number to return, based on the page size. Used to paginate large collections."},"type":{"type":"string","enum":["product","category","brand","page"],"description":"Filter associations by type"},"is_valid":{"type":"boolean","description":"Optional toggle to filter for exclusively valid or invalid associations entries. An invalid entry is one where it's file name does not match up to an existing custom layout file in the currently active theme for the channel."}},"required":[]},"config":{"hideRoot":true}}]}]},"config":{"classNames":["ApiOperation--request"]}},{"type":"text","data":"## Responses","config":{"classNames":["ApiOperation--responsesTitle mt-10 -mb-14"]}},{"type":"tabs","data":{"children":[{"title":"200","blocks":[{"type":"text","data":"OK"},{"type":"accordion","data":{"children":[{"title":"1 Example","blocks":[{"type":"tabs","data":{"children":[{"title":"example-1","blocks":[{"type":"code","data":"{\n  \"data\": [\n    {\n      \"id\": 1,\n      \"channel_id\": 1,\n      \"entity_type\": \"product\",\n      \"entity_id\": 123,\n      \"file_name\": \"custom-product-1.html\"\n    },\n    {\n      \"id\": 2,\n      \"channel_id\": 12345,\n      \"entity_type\": \"page\",\n      \"entity_id\": 123,\n      \"file_name\": \"custom-page.html\"\n    }\n  ],\n  \"meta\": {\n    \"pagination\": {\n      \"total\": 246,\n      \"count\": 5,\n      \"per_page\": 5,\n      \"current_page\": 1,\n      \"total_pages\": 50,\n      \"links\": {\n        \"next\": \"?limit=5&page=2\",\n        \"current\": \"?limit=5&page=1\"\n      }\n    }\n  }\n}"}]}]}}]},{"title":"Schema","config":{"defaultOpen":true},"blocks":[{"type":"jsonSchema","data":{"type":"object","properties":{"data":{"type":"array","items":{"title":"CustomTemplateAssociation","type":"object","properties":{"id":{"type":"integer"},"channel_id":{"type":"integer"},"entity_type":{"type":"string","enum":["product","category","brand","page"]},"entity_id":{"type":"integer"},"file_name":{"type":"string","example":"custom-product-1.html"},"is_valid":{"type":"boolean","description":"An invalid file name does not match with an existing custom layout file in the currently active theme for the channel. When an association is invalid the store will fallback to using the default for that entity type."},"date_created":{"type":"string"},"date_modified":{"type":"string"}}}},"meta":{"type":"object","properties":{"pagination":{"type":"object","properties":{"total":{"type":"integer","example":246,"minimum":0},"count":{"type":"integer","example":5,"minimum":0},"per_page":{"type":"integer","example":5,"minimum":0},"current_page":{"type":"integer","example":1,"minimum":1},"total_pages":{"type":"integer","example":50,"minimum":0},"links":{"type":"object","properties":{"next":{"type":"string","example":"?limit=5&page=2"},"current":{"type":"string","example":"?limit=5&page=1"}}}}}}}},"$schema":"http://json-schema.org/draft-04/schema#"}}]}]}}]}]},"config":{"classNames":["ApiOperation--responses"]}},{"type":"text","data":"## Send a Test Request","config":{"classNames":["ApiOperation--tryItOutTitle mt-10 -mb-10"]}},{"type":"http","data":{"method":"get","url":"https://api.bigcommerce.com/stores/{$$.env.store_hash}/v3/storefront/custom-template-associations","headers":{"X-Auth-Token":"{$$.env.X-Auth-Token}"},"query":{"channel_id":"","entity_id:in":"","limit":"","page":"","type":"","is_valid":""}},"config":{"canvas":false,"paddedInner":false,"classNames":["ApiOperation--tryItOut"]}}],"children":[]}}}}
